<?xml version="1.0" encoding="utf-8"?>
<!-- Generator: Adobe Illustrator 16.0.0, SVG Export Plug-In . SVG Version: 6.00 Build 0)  -->
<!DOCTYPE svg PUBLIC "-//W3C//DTD SVG 1.1//EN" "http://www.w3.org/Graphics/SVG/1.1/DTD/svg11.dtd">
<svg version="1.1" id="Capa_1" xmlns="http://www.w3.org/2000/svg" xmlns:xlink="http://www.w3.org/1999/xlink" x="0px" y="0px"
	 width="223.2px" height="251px" viewBox="0 0 223.2 251" enable-background="new 0 0 223.2 251" xml:space="preserve">
<g>
	<g id="label_6_" opacity="0.25">
		<circle fill="#017A94" cx="111.6" cy="97.461" r="81.5"/>
	</g>
	<g>
		<path fill="#FFFFFF" stroke="#017A94" stroke-width="3" stroke-miterlimit="10" d="M168.454,168.848
			c0,2.256-2.662,4.085-5.945,4.085H68.117c-3.283,0-5.946-1.829-5.946-4.085v-8.682c0-2.257,2.663-4.086,5.946-4.086h94.391
			c3.283,0,5.945,1.829,5.945,4.086V168.848z"/>
		<rect x="84.387" y="158.342" fill="none" width="70.61" height="12.916"/>
		<text transform="matrix(1 0 0 1 84.3867 167.3105)" fill="#231F20" font-family="'FuturaStd-Medium'" font-size="10.3332">Encuestadores</text>
	</g>
	<g id="icons_10_">
		<g>
			<g>
				<g>
					<path fill="#C1B49A" d="M104.346,57.794c-0.42-0.912-1.158-1.637-2.08-2.04l-10.225-2.746v-3.419l-2.217,2.215
						c-0.77,0.77-1.812,1.203-2.901,1.203h-1.72h-1.721c-1.087,0-2.13-0.433-2.899-1.203l-2.217-2.215v3.419L68.14,55.754
						c-0.92,0.403-1.66,1.127-2.081,2.04l-2.735,4.786h21.879h21.879L104.346,57.794z"/>
				</g>
			</g>
			<g>
				<g>
					<path fill="#BE8562" d="M95.459,36.599c-0.29,0-0.508,0.069-0.687,0.167c-0.005-0.525,0.023-1.037,0-1.533H75.674
						c-0.031,0.659-0.042,1.344-0.043,2.05v8.438c0,0.729,0.288,1.422,0.801,1.937l4.151,4.147c0.77,0.77,1.812,1.203,2.899,1.203
						h1.721h1.72c1.089,0,2.131-0.433,2.901-1.203l4.151-4.147c0.512-0.514,0.801-1.209,0.801-1.937v-2.413
						c1.521-0.595,2.051-3.185,2.051-5.188C96.826,37.358,96.143,36.599,95.459,36.599z"/>
				</g>
			</g>
			<g>
				<g>
					<g>
						<circle fill="#F1B51B" cx="85.203" cy="60.528" r="1.368"/>
					</g>
				</g>
			</g>
			<g>
				<g>
					<g>
						<circle fill="#F1B51B" cx="85.203" cy="55.743" r="1.368"/>
					</g>
				</g>
			</g>
			<g>
				<g>
					<path fill="#CA9777" d="M75.674,35.232c-0.023,0.499-0.035,1.008-0.041,1.533c-0.179-0.097-0.396-0.167-0.686-0.167
						c-0.685,0-1.368,0.76-1.368,1.521c0,2.002,0.529,4.592,2.051,5.188v2.413c0,0.729,0.288,1.422,0.801,1.937l4.151,4.147
						c0.77,0.77,1.812,1.203,2.899,1.203h1.721V35.232H75.674z"/>
				</g>
			</g>
			<g>
				<g>
					<g>
						<path fill="#9C6245" d="M82.469,45.487h5.47c0,0,0,2.052-2.735,2.052C82.469,47.539,82.469,45.487,82.469,45.487z"/>
					</g>
				</g>
			</g>
			<g>
				<g>
					<g>
						<path fill="#3F3F40" d="M83.147,37.964c0-0.754-0.612-1.367-1.368-1.367c-0.001,0-0.002,0-0.005,0
							c0.002,0.014,0.005,0.028,0.005,0.041c0,0.755-0.61,1.366-1.363,1.369c0.023,0.734,0.622,1.325,1.363,1.325
							C82.535,39.333,83.147,38.72,83.147,37.964z"/>
					</g>
				</g>
			</g>
			<g>
				<g>
					<g>
						<path fill="#3F3F40" d="M89.98,37.964c0-0.754-0.614-1.367-1.368-1.367c-0.001,0-0.003,0-0.004,0
							c0.001,0.014,0.004,0.028,0.004,0.041c0,0.755-0.61,1.366-1.362,1.369c0.022,0.734,0.622,1.325,1.362,1.325
							C89.369,39.333,89.98,38.72,89.98,37.964z"/>
					</g>
				</g>
			</g>
			<g>
				<g>
					<polygon fill="#3F3F40" points="92.724,35.232 92.724,39.334 93.408,39.334 94.775,36.599 94.775,35.232 					"/>
				</g>
			</g>
			<g>
				<g>
					<polygon fill="#3F3F40" points="75.631,36.599 76.999,39.334 77.682,39.334 77.682,35.232 					"/>
				</g>
			</g>
			<g>
				<g>
					<g>
						<g>
							<path fill="#3F3F40" d="M85.203,44.12c-1.368-2.052-4.787-0.684-6.154,1.368c2.052,0,6.154,0,6.154,0V44.12z"/>
						</g>
					</g>
				</g>
				<g>
					<g>
						<g>
							<path fill="#3F3F40" d="M85.203,44.12c1.368-2.052,4.786-0.684,6.153,1.368c-2.051,0-6.153,0-6.153,0V44.12z"/>
						</g>
					</g>
				</g>
			</g>
			<path fill="#3F3F40" d="M77.289,31.372c1.401-2.201,3.203-2.845,5.404-2.646c2.201,0.2,4.002-2.199,5.602-0.601
				c1.601,1.601,4.002,1.203,5.002,2.801c1,1.601,2.259,3.259,1.63,4.231c-0.631,0.972-0.246,0.674-2.024,0.647
				c-1.78-0.028-8.081,0.435-9.603-0.172c-1.522-0.609-5.186-0.133-5.479-0.076c-1.004,0.192-2.039,0.967-2.039,0.967
				s-0.41-0.395-0.41-2.196S77.289,31.372,77.289,31.372z"/>
		</g>
	</g>
	<g id="icons_11_">
		<g>
			<g>
				<g>
					<path fill="#FFFFFF" d="M74.62,103.577c-0.57-1.481-1.793-2.614-3.311-3.069l-8.484-3.123l-6.355,3.179l-6.353-3.179
						l-8.483,3.123c-1.519,0.457-2.742,1.588-3.312,3.069l-2.301,5.983h20.397h0.106h20.398L74.62,103.577z"/>
				</g>
			</g>
			<g>
				<g>
					<g>
						<polygon fill="#E02D2C" points="59.087,109.575 57.165,104.447 58.446,102.528 56.512,100.589 54.59,102.509 55.883,104.447 
							53.961,109.575 						"/>
					</g>
				</g>
			</g>
			<g>
				<g>
					<g>
						<polygon fill="#F05857" points="56.524,109.575 56.524,100.602 56.512,100.589 54.59,102.509 55.883,104.447 53.961,109.575 
													"/>
					</g>
				</g>
			</g>
			<g>
				<g>
					<polygon fill="#3F3F40" points="64.182,97.885 56.469,109.48 48.76,97.885 42.427,100.217 42.427,109.56 56.417,109.56 
						56.524,109.56 70.514,109.56 70.514,100.215 					"/>
				</g>
			</g>
			<g>
				<g>
					<path fill="#F7B4B3" d="M56.524,98.027v2.562l6.407-3.202v-4.208C61.11,95.996,58.628,97.326,56.524,98.027z"/>
				</g>
			</g>
			<g>
				<g>
					<path fill="#F9C7C7" d="M50.116,93.179v4.208l6.408,3.202v-2.562C54.42,97.326,51.937,95.996,50.116,93.179z"/>
				</g>
			</g>
			<g>
				<g>
					<path fill="#F9C7C7" d="M66.135,82.648c-0.177,0-0.405,0-0.641,0l0,0l-1.38-0.277c-2.923-0.584-5.027-3.149-5.027-6.13
						c-0.778,2.072-1.661,3.299-2.563,4.035c-1.329,1.081-2.7,1.089-3.845,1.089v-2.562c-3.05,4.068-4.25,3.924-5.87,3.858
						c-0.603,0.071-1.178,0.735-1.178,1.41c0,1.979,0.554,4.568,2.677,4.936c1.564,5.832,5.267,8.034,8.216,9.019
						c2.95-0.984,6.651-3.187,8.216-9.019c2.122-0.368,2.676-2.957,2.676-4.936C67.417,83.361,66.775,82.648,66.135,82.648z"/>
				</g>
			</g>
			<g>
				<g>
					<path fill="#FBD7D7" d="M52.679,81.366v-2.562c-3.05,4.068-4.25,3.924-5.87,3.858c-0.603,0.071-1.178,0.735-1.178,1.41
						c0,1.979,0.554,4.568,2.677,4.936c1.564,5.832,5.267,8.034,8.216,9.019v-17.75C55.195,81.36,53.824,81.366,52.679,81.366z"/>
				</g>
			</g>
			<g>
				<g>
					<g>
						<path fill="#F49291" d="M53.32,90.98h6.407c0,0,0,1.922-3.204,1.922S53.32,90.98,53.32,90.98z"/>
					</g>
				</g>
			</g>
			<g>
				<g>
					<g>
						<path fill="#3F3F40" d="M54.605,83.931c0-0.708-0.573-1.282-1.281-1.282c-0.002,0-0.003,0-0.004,0
							c0,0.014,0.004,0.026,0.004,0.04c0,0.708-0.571,1.279-1.277,1.28c0.021,0.688,0.583,1.243,1.277,1.243
							C54.032,85.213,54.605,84.638,54.605,83.931z"/>
					</g>
				</g>
			</g>
			<g>
				<g>
					<g>
						<path fill="#3F3F40" d="M61.009,83.931c0-0.708-0.574-1.282-1.281-1.282c-0.001,0-0.003,0-0.004,0
							c0,0.014,0.004,0.026,0.004,0.04c0,0.708-0.573,1.279-1.278,1.28c0.021,0.688,0.583,1.243,1.278,1.243
							C60.435,85.213,61.009,84.638,61.009,83.931z"/>
					</g>
				</g>
			</g>
			<g>
				<g>
					<path fill="#83472E" d="M71.901,76.081c-1.963-3.929-5.058-4.46-7.839-2.767c-1.871-1.765-4.55-2.839-7.538-2.839
						c-5.422,0-9.85,3.53-10.215,8.33h-0.037v3.844c1.922,0,3.03,0.662,6.408-3.844v2.562c1.923,0,4.486,0,6.408-5.125
						c0,2.981,2.104,5.545,5.027,6.13l1.38,0.277c0.236,0,0.464,0,0.641,0c0.64,0,1.281,0.711,1.281,1.424
						c0,1.722-0.418,3.898-1.922,4.682c0,0.744,0,1.492,0,2.226c0,5.766,8.33,5.766,8.33,3.204
						C66.135,94.822,74.465,81.207,71.901,76.081z"/>
				</g>
			</g>
			<g>
				<g>
					<path fill="#9C6245" d="M46.309,78.804h-0.037v3.844c1.922,0,3.03,0.662,6.408-3.844v2.562c1.145,0,2.516-0.009,3.845-1.089
						v-9.802C51.102,70.475,46.674,74.004,46.309,78.804z"/>
				</g>
			</g>
		</g>
	</g>
	<g id="icons_12_">
		<g>
			<g>
				<g>
					<path fill="#F7B4B3" d="M138.809,103.729l-2.301-5.983c-0.568-1.481-1.791-2.614-3.311-3.07l-8.482-2.024v-5.307
						c-1.822,2.817-4.305,4.147-6.408,4.849c-2.102-0.701-4.588-2.023-6.408-4.833v6.755c0,0,1.281,2.562,6.408,2.562v7.049h20.502
						V103.729z"/>
				</g>
			</g>
			<g>
				<g>
					<path fill="#3F3F40" d="M124.715,92.653l3.203,0.765V82.445c-0.363,0.368-0.82,0.633-1.396,0.733
						c-0.447,1.674-1.076,3.041-1.807,4.174V92.653z"/>
				</g>
			</g>
			<g>
				<g>
					<path fill="#F9C7C7" d="M111.899,87.362v5.291l-8.482,2.024c-1.52,0.457-2.742,1.589-3.312,3.07l-2.302,5.983h20.504V92.196
						C116.206,91.493,113.719,90.171,111.899,87.362z"/>
				</g>
			</g>
			<g>
				<g>
					<path fill="#F9C7C7" d="M127.934,76.819v0.007c-0.98,0.268-5.615-0.936-5.773-10.409c-1.055-0.318-2.324-0.492-3.854-0.492
						c-8.314,0-8.959,5.106-8.971,10.878c0,10.764,5.127,14.11,8.971,15.392c2.949-0.985,6.65-3.188,8.215-9.02
						c2.125-0.365,2.678-2.955,2.678-4.935C129.2,77.537,128.571,76.831,127.934,76.819z"/>
				</g>
			</g>
			<g>
				<g>
					<g>
						<path fill="#F05857" d="M136.508,97.747c-0.373-0.976-1.035-1.794-1.877-2.374c-1.572,2.938-8.57,5.153-16.965,5.153
							c-7.725,0-14.266-1.878-16.488-4.464c-0.458,0.481-0.829,1.049-1.074,1.686l-2.302,5.983h20.504h20.502L136.508,97.747z"/>
					</g>
				</g>
			</g>
			<g>
				<g>
					<g>
						<path fill="#FBD7D7" d="M118.307,65.926c-8.314,0-8.959,5.106-8.971,10.878c0,10.764,5.127,14.11,8.971,15.392V65.926z"/>
					</g>
				</g>
			</g>
			<g>
				<g>
					<g>
						<path fill="#3F3F40" d="M116.385,78.1c0-0.708-0.576-1.282-1.281-1.282c-0.002,0-0.002,0-0.004,0
							c0,0.013,0.004,0.026,0.004,0.04c0,0.706-0.572,1.279-1.277,1.281c0.021,0.688,0.582,1.244,1.277,1.244
							C115.809,79.382,116.385,78.808,116.385,78.1z"/>
					</g>
				</g>
			</g>
			<g>
				<g>
					<g>
						<path fill="#3F3F40" d="M122.79,78.1c0-0.708-0.576-1.282-1.283-1.282c0,0-0.002,0-0.004,0
							c0.002,0.013,0.004,0.026,0.004,0.04c0,0.706-0.57,1.279-1.277,1.281c0.021,0.688,0.584,1.244,1.277,1.244
							C122.213,79.382,122.79,78.808,122.79,78.1z"/>
					</g>
				</g>
			</g>
			<g>
				<g>
					<g>
						<path fill="#F49291" d="M115.104,85.147h6.406c0,0,0,1.922-3.203,1.922S115.104,85.147,115.104,85.147z"/>
					</g>
				</g>
			</g>
			<g>
				<g>
					<g>
						<path fill="#3F3F40" d="M106.774,72.974v29.474c0,0,7.049-3.844,7.049-15.564V76.818c0-10.245,8.971-5.126,8.328-10.892
							C122.151,60.799,106.774,63.362,106.774,72.974z"/>
					</g>
				</g>
			</g>
			<g>
				<g>
					<g>
						<path fill="#3F3F40" d="M122.151,65.967c0.018,9.892,4.787,11.13,5.783,10.862c0-2.084,1.361-10.876-5.74-10.904
							C122.172,65.926,122.151,65.945,122.151,65.967z"/>
					</g>
				</g>
			</g>
			<g>
				<g>
					<g>
						<path fill="#FFFFFF" d="M127.5,83.867l0.979,2.361c0.164,0.396,0.072,0.852-0.23,1.154c-0.412,0.414-1.082,0.414-1.498,0
							c-0.303-0.302-0.393-0.757-0.229-1.154L127.5,83.867z"/>
					</g>
				</g>
			</g>
		</g>
	</g>
	<g id="icons_13_">
		<g>
			<g>
				<g>
					<path fill="#F9C7C7" d="M165.686,51.354l-1.281,0.64l-1.922-6.407L151.59,48.79c0,0,0.961-1.35,1.924-3.203
						c-4.646,0-5.768,6.407-5.768,6.407l-0.643-0.32v4.782l2.564,6.407l3.27,2.561c0.365,0.408,0.889,0.644,1.436,0.644h1.701h1.703
						c0.547,0,1.068-0.236,1.434-0.644l3.271-2.561l2.045-5.114c1.824-0.121,2.438-2.885,2.438-4.972
						C166.969,52.065,166.327,51.354,165.686,51.354z"/>
				</g>
			</g>
			<g>
				<g>
					<g>
						<path fill="#FFFFFF" d="M174.018,71.193c-0.396-0.854-1.088-1.535-1.951-1.91l-7.662-2.575h-8.33h-8.328l-7.664,2.575
							c-0.859,0.375-1.553,1.056-1.947,1.91l-2.564,7.049h41.008L174.018,71.193z"/>
					</g>
				</g>
			</g>
			<g>
				<g>
					<g>
						<polygon fill="#F49291" points="136.262,76.343 175.889,76.343 175.19,74.42 136.961,74.42 						"/>
					</g>
				</g>
			</g>
			<g>
				<g>
					<g>
						<path fill="#F49291" d="M138.135,71.193l-0.242,0.664h36.365l-0.24-0.664c-0.229-0.488-0.559-0.906-0.951-1.258h-33.982
							C138.69,70.284,138.362,70.705,138.135,71.193z"/>
					</g>
				</g>
			</g>
			<g>
				<g>
					<g>
						<path fill="#1EB1CF" d="M156.075,73.162c2.473,0,8.33-0.641,8.33-4.485c0-0.435,0-1.147,0-1.969h-1.922v1.969
							c0,0-1.281,2.562-6.408,2.562c-5.125,0-6.406-2.562-6.406-2.562v-1.969h-1.922c0,0.822,0,1.535,0,1.969
							C147.747,72.521,153.604,73.162,156.075,73.162z"/>
					</g>
				</g>
			</g>
			<g>
				<g>
					<path fill="#F7B4B3" d="M157.778,66.068h-1.703h-1.701c-0.547,0-1.07-0.236-1.434-0.644l-3.271-2.561v5.792
						c0,0,1.281,2.562,6.408,2.562c5.125,0,6.406-2.562,6.406-2.562v-5.792l-3.271,2.561
						C158.848,65.833,158.325,66.068,157.778,66.068z"/>
				</g>
			</g>
			<g>
				<g>
					<path fill="#F9C7C7" d="M152.938,65.424l-3.27-2.561v5.792c0,0,1.281,2.562,6.406,2.562v-5.148h-1.701
						C153.827,66.068,153.303,65.833,152.938,65.424z"/>
				</g>
			</g>
			<g>
				<g>
					<path fill="#FBD7D7" d="M153.514,45.587c-4.646,0-5.768,6.407-5.768,6.407l-1.283-0.64c-0.641,0-1.281,0.711-1.281,1.422
						c0,2.087,0.617,4.851,2.441,4.972l2.045,5.114l3.27,2.561c0.365,0.41,0.889,0.644,1.436,0.644h1.701V47.471l-4.484,1.319
						C151.59,48.79,152.551,47.44,153.514,45.587z"/>
				</g>
			</g>
			<g>
				<g>
					<g>
						<path fill="#3F3F40" d="M154.153,52.634c0-0.708-0.574-1.28-1.281-1.28c-0.002,0-0.002,0-0.002,0
							c0,0.014,0.002,0.025,0.002,0.038c0,0.708-0.57,1.28-1.277,1.282c0.023,0.688,0.582,1.242,1.277,1.242
							C153.579,53.917,154.153,53.342,154.153,52.634z"/>
					</g>
				</g>
			</g>
			<g>
				<g>
					<g>
						<path fill="#3F3F40" d="M160.557,52.634c0-0.708-0.574-1.28-1.281-1.28c-0.002,0-0.004,0-0.006,0
							c0,0.014,0.006,0.025,0.006,0.038c0,0.708-0.574,1.28-1.279,1.282c0.023,0.688,0.584,1.242,1.279,1.242
							C159.983,53.917,160.557,53.342,160.557,52.634z"/>
					</g>
				</g>
			</g>
			<g>
				<g>
					<g>
						<path fill="#F49291" d="M152.872,59.684h6.408c0,0,0,1.922-3.205,1.922C152.872,61.605,152.872,59.684,152.872,59.684z"/>
					</g>
				</g>
			</g>
			<g>
				<g>
					<g>
						<path fill="#83472E" d="M156.075,39.431c-5.305,0-9.611,4.113-9.611,9.61v2.311l1.283,0.641c0,0,1.121-6.407,5.768-6.407
							c-0.963,1.854-1.924,3.204-1.924,3.204l10.893-3.204l1.922,6.407l1.281-0.641v-2.311
							C165.686,43.544,161.385,39.431,156.075,39.431z"/>
					</g>
				</g>
			</g>
			<g>
				<g>
					<path fill="#9C6245" d="M146.463,49.041v2.311l1.283,0.641c0,0,1.121-6.407,5.768-6.407c-0.963,1.854-1.924,3.204-1.924,3.204
						l4.484-1.32v-8.039C150.77,39.431,146.463,43.544,146.463,49.041z"/>
				</g>
			</g>
		</g>
	</g>
	<g id="icons_16_">
		<g>
			<g>
				<g>
					<path fill="#692F1A" d="M154.077,103.741c-2.787,0-4.93,0.388-6.582,0.98c-1.678,0.602-2.852,1.414-3.666,2.258
						c-1.879,1.943-1.879,4.04-1.879,4.04l1.213,23.042h7.275v-21.118c2.084,0.794,4.775,1.229,7.275,1.463v19.654h7.277
						l1.213-23.042C166.204,111.019,166.204,103.741,154.077,103.741z"/>
				</g>
			</g>
			<g>
				<g>
					<path fill="#83472E" d="M154.077,103.741c-2.787,0-4.93,0.388-6.582,0.98c-1.678,0.602-2.852,1.414-3.666,2.258
						c-1.879,1.943-1.879,4.04-1.879,4.04l1.213,23.042h7.275v-21.118c1.086,0.414,2.336,0.727,3.639,0.969V103.741z"/>
				</g>
			</g>
			<g>
				<g>
					<g>
						<path fill="#3F3F40" d="M154.077,131.636l-4.246-0.607l-9.848,2.349c-1.436,0.431-2.594,1.503-3.135,2.904l-2.178,5.662
							h19.406V131.636z"/>
					</g>
				</g>
			</g>
			<g>
				<g>
					<g>
						<path fill="#3F3F40" d="M154.077,131.636l4.244-0.607l9.846,2.349c1.438,0.431,2.596,1.503,3.135,2.904l2.178,5.662h-19.402
							V131.636z"/>
					</g>
				</g>
			</g>
			<g>
				<g>
					<path fill="#F9C7C7" d="M148.012,126.44v8.228l4.852,7.275h1.213v-10.915C152.084,130.364,149.735,129.106,148.012,126.44z"/>
				</g>
			</g>
			<g>
				<g>
					<path fill="#F7B4B3" d="M154.077,131.028v10.915h1.211l4.852-7.275v-8.228C158.417,129.106,156.067,130.364,154.077,131.028z"
						/>
				</g>
			</g>
			<g>
				<g>
					<path fill="#F9C7C7" d="M163.17,116.476c-0.166,0-0.383,0-0.605,0c0-0.003,0-0.009,0-0.009
						c-0.002-0.613-0.012-1.216-0.037-1.804c-4.896-0.08-15.416-0.782-15.711-5.275c-1.074,1.88-1.225,4.401-1.23,7.076
						c0,0,0,0.009,0,0.012c-0.221,0-0.438,0-0.607,0c-0.605,0-1.211,0.673-1.211,1.349c0,1.873,0.521,4.321,2.533,4.669
						c1.479,5.52,4.984,7.605,7.775,8.535c2.791-0.93,6.293-3.016,7.775-8.535c2.008-0.346,2.531-2.796,2.531-4.669
						C164.383,117.149,163.778,116.476,163.17,116.476z"/>
				</g>
			</g>
			<g>
				<g>
					<path fill="#FBD7D7" d="M146.817,109.388c-1.074,1.88-1.225,4.401-1.23,7.076c0,0,0,0.009,0,0.012c-0.221,0-0.438,0-0.607,0
						c-0.605,0-1.211,0.673-1.211,1.349c0,1.873,0.521,4.321,2.533,4.669c1.479,5.52,4.984,7.605,7.775,8.535v-17.115
						C150.305,113.217,146.981,111.889,146.817,109.388z"/>
				</g>
			</g>
			<g>
				<g>
					<g>
						<path fill="#F49291" d="M151.043,124.359h6.064c0,0,0,1.817-3.031,1.817C151.043,126.177,151.043,124.359,151.043,124.359z"/>
					</g>
				</g>
			</g>
			<g>
				<g>
					<g>
						<polygon fill="#FFFFFF" points="148.004,127.997 149.225,134.668 154.077,141.943 152.864,141.943 144.979,137.094 
							147.405,134.061 141.95,132.848 						"/>
					</g>
				</g>
			</g>
			<g>
				<g>
					<g>
						<polygon fill="#FFFFFF" points="160.145,127.997 158.926,134.668 154.077,141.943 155.288,141.943 163.17,137.094 
							160.747,134.061 166.204,132.848 						"/>
					</g>
				</g>
			</g>
			<g>
				<g>
					<g>
						<path fill="#3F3F40" d="M152.256,117.688c0-0.669-0.543-1.213-1.213-1.213c0,0-0.002,0-0.004,0
							c0,0.015,0.004,0.025,0.004,0.038c0,0.668-0.541,1.21-1.209,1.213c0.02,0.652,0.553,1.174,1.209,1.174
							C151.713,118.901,152.256,118.359,152.256,117.688z"/>
					</g>
				</g>
			</g>
			<g>
				<g>
					<g>
						<path fill="#3F3F40" d="M158.317,117.688c0-0.669-0.543-1.213-1.213-1.213c-0.002,0-0.002,0-0.004,0
							c0,0.015,0.004,0.025,0.004,0.038c0,0.668-0.541,1.21-1.209,1.213c0.02,0.652,0.551,1.174,1.209,1.174
							C157.774,118.901,158.317,118.359,158.317,117.688z"/>
					</g>
				</g>
			</g>
			<g>
				<g>
					<g>
						<circle fill="#F9E057" cx="163.383" cy="123.371" r="0.988"/>
					</g>
				</g>
			</g>
			<g>
				<g>
					<g>
						<circle fill="#F9E057" cx="144.6" cy="123.371" r="0.988"/>
					</g>
				</g>
			</g>
		</g>
	</g>
	<g>
		<g id="icons_9_">
			<g>
				<g>
					<g>
						<g>
							<polygon fill="#F0F0F0" points="93.16,150.5 85.47,138.325 100.849,138.325 							"/>
						</g>
					</g>
				</g>
				<g>
					<g>
						<path fill="#F7B4B3" d="M94.86,138.327H93.16h-1.701c-0.548,0-1.072-0.235-1.435-0.644l-3.271-2.561v2.882
							c0,0,0,4.805,6.408,4.805c6.407,0,6.407-4.805,6.407-4.805v-2.882l-3.271,2.561C95.932,138.092,95.408,138.327,94.86,138.327z
							"/>
					</g>
				</g>
				<g>
					<g>
						<path fill="#F9C7C7" d="M90.022,137.684l-3.271-2.561v2.882c0,0,0,4.805,6.408,4.805v-4.482h-1.701
							C90.91,138.327,90.387,138.092,90.022,137.684z"/>
					</g>
				</g>
				<g>
					<g>
						<g>
							<polygon fill="#FFFFFF" points="85.47,138.325 86.752,137.684 93.149,140.876 89.315,144.731 							"/>
						</g>
					</g>
				</g>
				<g>
					<g>
						<g>
							<polygon fill="#FFFFFF" points="100.849,138.325 99.566,137.684 93.17,140.876 97.004,144.731 							"/>
						</g>
					</g>
				</g>
				<g>
					<g>
						<g>
							<polygon fill="#F16941" points="95.722,150.5 93.93,143.965 95.082,142.812 93.146,140.876 91.226,142.796 92.39,143.961 
								90.596,150.5 							"/>
						</g>
					</g>
				</g>
				<g>
					<g>
						<g>
							<polygon fill="#F09A20" points="93.16,150.5 93.16,140.888 93.146,140.876 91.226,142.796 92.39,143.961 90.596,150.5 
															"/>
						</g>
					</g>
				</g>
				<g>
					<g>
						<g>
							<path fill="#FFFFFF" d="M72.656,150.5l2.562-7.048c0.395-0.854,1.089-1.535,1.95-1.91l8.302-3.215L93.16,150.5H72.656z"/>
						</g>
					</g>
				</g>
				<g>
					<g>
						<g>
							<path fill="#FFFFFF" d="M113.663,150.5l-2.562-7.048c-0.395-0.854-1.088-1.535-1.949-1.91l-8.302-3.215L93.16,150.5H113.663z
								"/>
						</g>
					</g>
				</g>
				<g>
					<g>
						<path fill="#F9C7C7" d="M102.77,123.589c-0.641,0-0.641,0.713-0.641,0.713v-0.072h-0.641v-5.063
							c-1.51,1.416-3.9,2.5-7.688,2.5c-5.896,0-8.531-3.248-8.915-3.768c-0.018,0.049-0.039,0.096-0.057,0.146v6.184h-0.64v4.484
							l2.562,6.406l3.271,2.562c0.363,0.408,0.887,0.644,1.436,0.644h1.702h1.701c0.548,0,1.071-0.235,1.435-0.644l3.271-2.562
							l2.055-5.137c1.817-0.131,2.43-2.886,2.43-4.971C104.051,124.302,103.411,123.589,102.77,123.589z"/>
					</g>
				</g>
				<g>
					<g>
						<path fill="#FBD7D7" d="M84.829,117.822c-0.018,0.05,0.018,0.176,0,0.226v6.184h-0.64c0,0,0.011,0.045-0.042-0.178
							c-0.061-0.204-0.213-0.465-0.599-0.465c-0.641,0-1.281,0.714-1.281,1.425c0,2.085,0.613,4.841,2.43,4.973l2.055,5.136
							l3.271,2.561c0.363,0.408,0.887,0.644,1.436,0.644h1.702v-16.682C87.72,121.418,85.199,118.324,84.829,117.822z"/>
					</g>
				</g>
				<g>
					<g>
						<g>
							<polygon fill="#017A94" points="79.062,150.5 93.16,150.5 85.47,138.327 79.062,140.808 							"/>
						</g>
					</g>
				</g>
				<g>
					<g>
						<g>
							<polygon fill="#017A94" points="107.256,150.5 93.16,150.5 100.849,138.327 107.256,140.808 							"/>
						</g>
					</g>
				</g>
				<g>
					<g>
						<g>
							<path fill="#F49291" d="M89.956,131.276h6.407c0,0,0,1.922-3.204,1.922S89.956,131.276,89.956,131.276z"/>
						</g>
					</g>
				</g>
				<g>
					<g>
						<path fill="#3F3F40" d="M102.403,118.137c1.854-2.51,1.648-5.44,1.648-5.44H93.16h-4.399c-1.654,0-3.229,0.705-4.331,1.937
							c-1.104,1.232-1.628,2.874-1.446,4.518l1.206,5.079h0.64v-6.407c0,0,2.564,3.845,8.972,3.845c3.787,0,6.178-1.085,7.688-2.5
							v5.063h0.641l0.814-4.542c0.113-0.448,0.012-0.924-0.273-1.287C102.594,118.3,102.5,118.213,102.403,118.137z"/>
					</g>
				</g>
			</g>
		</g>
		<g>
			<g>
				<g>
					<path fill="#3F3F40" d="M91.15,125.511c0-0.705-0.668-1.28-1.49-1.28c-0.002,0-0.002,0-0.005,0
						c0,0.014,0.005,0.026,0.005,0.039c0,0.707-0.665,1.279-1.485,1.281c0.025,0.689,0.678,1.242,1.485,1.242
						C90.482,126.793,91.15,126.219,91.15,125.511z"/>
				</g>
			</g>
		</g>
		<g>
			<g>
				<g>
					<path fill="#3F3F40" d="M98.591,125.511c0-0.705-0.668-1.28-1.49-1.28c-0.001,0-0.001,0-0.005,0
						c0.002,0.014,0.005,0.026,0.005,0.039c0,0.707-0.663,1.279-1.484,1.281c0.025,0.689,0.678,1.242,1.484,1.242
						C97.923,126.793,98.591,126.219,98.591,125.511z"/>
				</g>
			</g>
		</g>
	</g>
</g>
</svg>
