<?xml version="1.0" encoding="utf-8"?>
<!-- Generator: Adobe Illustrator 16.0.0, SVG Export Plug-In . SVG Version: 6.00 Build 0)  -->
<!DOCTYPE svg PUBLIC "-//W3C//DTD SVG 1.1//EN" "http://www.w3.org/Graphics/SVG/1.1/DTD/svg11.dtd">
<svg version="1.1" id="Capa_1" xmlns="http://www.w3.org/2000/svg" xmlns:xlink="http://www.w3.org/1999/xlink" x="0px" y="0px"
	 width="223.2px" height="251px" viewBox="0 0 223.2 251" enable-background="new 0 0 223.2 251" xml:space="preserve">
<g>
	<path opacity="0.25" fill="#017A94" d="M114.159,45.958c43.444,0,78.662,35.217,78.662,78.66c0,43.444-35.218,78.661-78.662,78.661
		c-43.442,0-78.66-35.217-78.66-78.661C35.499,81.175,70.716,45.958,114.159,45.958z"/>
	<g>
		<g>
			<g>
				<g>
					<g>
						<rect x="43.467" y="68.634" fill="#E6E7E8" width="80.836" height="119.408"/>
						<rect x="120.788" y="68.634" fill="#E5E5E5" width="3.516" height="119.408"/>
						<g>
							<g>
								<rect x="55.769" y="76.402" fill="#A3BECB" width="21.087" height="22.215"/>
								<rect x="57.525" y="77.79" fill="#C1E1F1" width="17.573" height="19.438"/>
							</g>
							<g>
								<rect x="90.915" y="76.402" fill="#A3BECB" width="21.088" height="22.215"/>
								<rect x="92.671" y="77.79" fill="#C1E1F1" width="17.574" height="19.438"/>
							</g>
						</g>
						<g>
							<g>
								<rect x="55.769" y="127.58" fill="#A3BECB" width="21.087" height="22.215"/>
								<rect x="57.525" y="128.969" fill="#C1E1F1" width="17.573" height="19.438"/>
							</g>
							<g>
								<rect x="90.915" y="127.58" fill="#A3BECB" width="21.088" height="22.215"/>
								<rect x="92.671" y="128.969" fill="#C1E1F1" width="17.574" height="19.438"/>
							</g>
						</g>
						<g>
							<g>
								<rect x="55.769" y="101.763" fill="#A3BECB" width="21.087" height="22.215"/>
								<rect x="57.525" y="103.151" fill="#C1E1F1" width="17.573" height="19.438"/>
							</g>
							<g>
								<rect x="90.915" y="101.763" fill="#A3BECB" width="21.088" height="22.215"/>
								<rect x="92.671" y="103.151" fill="#C1E1F1" width="17.574" height="19.438"/>
							</g>
						</g>
						<path fill="#F16941" d="M129.576,64.469c0-0.764-0.791-1.388-1.759-1.388H39.953c-0.967,0-1.757,0.625-1.757,1.388v2.778
							c0,0.763,0.79,1.387,1.757,1.387h87.864c0.968,0,1.759-0.625,1.759-1.387V64.469z"/>
						<rect x="43.467" y="68.634" fill="#E5E5E5" width="80.836" height="1.389"/>
						<path fill="#F16941" d="M99.976,155.885c0,0.764-0.791,1.389-1.757,1.389H70.102c-0.966,0-1.757-0.625-1.757-1.389l0,0
							c0-0.764,0.791-1.388,1.757-1.388h28.117C99.185,154.497,99.976,155.121,99.976,155.885L99.976,155.885z"/>
					</g>
				</g>
			</g>
			<g>
				<rect x="57.417" y="77.639" opacity="0.33" fill="#8DBEAE" width="18.015" height="19.626"/>
				
					<line opacity="0.75" fill="#FFFFFF" stroke="#F1F1F2" stroke-width="2" stroke-linecap="round" stroke-linejoin="round" stroke-miterlimit="10" x1="60.636" y1="89.505" x2="68.834" y2="82.079"/>
				
					<line opacity="0.75" fill="#FFFFFF" stroke="#F1F1F2" stroke-width="2" stroke-linecap="round" stroke-linejoin="round" stroke-miterlimit="10" x1="60.636" y1="93.081" x2="72.071" y2="82.904"/>
			</g>
			<g>
				<rect x="92.35" y="77.5" opacity="0.33" fill="#8DBEAE" width="18.014" height="19.626"/>
				
					<line opacity="0.75" fill="#FFFFFF" stroke="#F1F1F2" stroke-width="2" stroke-linecap="round" stroke-linejoin="round" stroke-miterlimit="10" x1="95.568" y1="89.367" x2="103.767" y2="81.941"/>
				
					<line opacity="0.75" fill="#FFFFFF" stroke="#F1F1F2" stroke-width="2" stroke-linecap="round" stroke-linejoin="round" stroke-miterlimit="10" x1="95.568" y1="92.942" x2="107.003" y2="82.766"/>
			</g>
			<g>
				<rect x="57.557" y="103.078" opacity="0.33" fill="#8DBEAE" width="18.015" height="19.626"/>
				
					<line opacity="0.75" fill="#FFFFFF" stroke="#F1F1F2" stroke-width="2" stroke-linecap="round" stroke-linejoin="round" stroke-miterlimit="10" x1="60.776" y1="114.944" x2="68.975" y2="107.518"/>
				
					<line opacity="0.75" fill="#FFFFFF" stroke="#F1F1F2" stroke-width="2" stroke-linecap="round" stroke-linejoin="round" stroke-miterlimit="10" x1="60.776" y1="118.52" x2="72.211" y2="108.343"/>
			</g>
			<g>
				<rect x="92.49" y="102.939" opacity="0.33" fill="#8DBEAE" width="18.015" height="19.626"/>
				
					<line opacity="0.75" fill="#FFFFFF" stroke="#F1F1F2" stroke-width="2" stroke-linecap="round" stroke-linejoin="round" stroke-miterlimit="10" x1="95.709" y1="114.806" x2="103.908" y2="107.38"/>
				
					<line opacity="0.75" fill="#FFFFFF" stroke="#F1F1F2" stroke-width="2" stroke-linecap="round" stroke-linejoin="round" stroke-miterlimit="10" x1="95.709" y1="118.382" x2="107.144" y2="108.205"/>
			</g>
			<g>
				<rect x="57.698" y="129.066" opacity="0.33" fill="#8DBEAE" width="18.014" height="19.625"/>
				
					<line opacity="0.75" fill="#FFFFFF" stroke="#F1F1F2" stroke-width="2" stroke-linecap="round" stroke-linejoin="round" stroke-miterlimit="10" x1="60.917" y1="140.933" x2="69.115" y2="133.506"/>
				
					<line opacity="0.75" fill="#FFFFFF" stroke="#F1F1F2" stroke-width="2" stroke-linecap="round" stroke-linejoin="round" stroke-miterlimit="10" x1="60.917" y1="144.508" x2="72.352" y2="134.331"/>
			</g>
			<g>
				<rect x="92.63" y="128.928" opacity="0.33" fill="#8DBEAE" width="18.014" height="19.626"/>
				
					<line opacity="0.75" fill="#FFFFFF" stroke="#F1F1F2" stroke-width="2" stroke-linecap="round" stroke-linejoin="round" stroke-miterlimit="10" x1="95.849" y1="140.794" x2="104.048" y2="133.367"/>
				
					<line opacity="0.75" fill="#FFFFFF" stroke="#F1F1F2" stroke-width="2" stroke-linecap="round" stroke-linejoin="round" stroke-miterlimit="10" x1="95.849" y1="144.37" x2="107.284" y2="134.192"/>
			</g>
		</g>
		<g id="Layer_1_2_">
			<g>
				<path fill="#E0995E" d="M91.371,157.339H76.068c-2.104,0-3.825,1.34-3.825,2.979v23.823c0,1.639,1.721,2.979,3.825,2.979h15.302
					c2.104,0,3.825-1.34,3.825-2.979v-23.823C95.196,158.679,93.475,157.339,91.371,157.339z M81.806,184.141h-5.738v-10.423h5.738
					V184.141z M81.806,170.74h-5.738v-10.423h5.738V170.74z M91.371,184.141h-5.738v-10.423h5.738V184.141z M91.371,170.74h-5.738
					v-10.423h5.738V170.74z"/>
			</g>
			<g>
				<g>
					<rect x="74.489" y="160.317" fill="#FFCB69" width="7.92" height="10.423"/>
				</g>
				<g>
					<rect x="74.489" y="173.718" fill="#FFCB69" width="7.92" height="10.423"/>
				</g>
				<g>
					<rect x="84.697" y="160.317" fill="#FFCB69" width="8.256" height="10.423"/>
				</g>
				<g>
					<rect x="84.697" y="173.718" fill="#FFCB69" width="8.256" height="10.423"/>
				</g>
			</g>
		</g>
		
			<rect x="28.125" y="187.351" transform="matrix(1 0.0041 -0.0041 1 0.7881 -0.4275)" fill="#D0D2D3" width="153.326" height="9.73"/>
		<g>
			<g>
				<g>
					<g>
						<path fill="#83472E" d="M169.118,159.255l-9.505,3.922c4.012-5.516,7.736-11.03,9.737-16.546
							c0.591-1.63,0.63-3.846,0.099-5.556l-2.349-7.572c-0.252-1.294-0.222-2.749,0.078-3.993l0.287-1.177
							c-1.234,0.413-2.517,0.693-3.863,0.693c-2.014,0-3.931-0.493-5.674-1.376c0.577,2.744,2.221,7.217,1.685,8.694
							c-0.627,1.729-9.315-1.12-13.34-12.006c-1.128,1.272-2.453,2.333-3.931,3.116c2.227,11.82,10.377,14.707,12.543,16.209
							c2.386,1.652-2.454,7.715-8.419,16.458c-0.721,1.055-1.666,1.197-2.45,0.368c-0.939-0.994-1.717-1.984-2.359-2.979
							c-0.852,1.568-1.996,2.97-3.346,4.067c0.836,1.956,1.973,4.152,3.164,6.23c-3.613,5.935-7.045,12.639-9.051,19.761h23.643
							c0-15.648,10.636-21.882,14.853-23.734C169.958,162.684,169.292,161.07,169.118,159.255z"/>
					</g>
				</g>
			</g>
			<g>
				<g>
					<g>
						<path fill="#97BC3D" d="M144.575,153.395c-0.32-3.677-3.175-5.736-6.524-4.862c-3.844-4.032-10.173-1.587-10.977,4.101
							c-2.121,1.043-3.576,3.164-3.576,5.612c0,3.483,2.931,6.306,6.547,6.306c1.69,0,3.229-0.623,4.392-1.64
							c1.201,0.535,2.656,0.582,4.188,0.014C142.251,161.576,144.917,157.307,144.575,153.395z"/>
					</g>
				</g>
			</g>
			<g>
				<g>
					<g>
						<path fill="#97BC3D" d="M171.026,157.277c-2.437-0.901-4.613,1.366-4.613,4.121c0,2.783,2.202,5.013,4.613,4.122
							c3.002,3.562,8.101,0.979,8.101-4.122C179.126,156.297,174.026,153.716,171.026,157.277z"/>
					</g>
				</g>
			</g>
			<g>
				<g>
					<g>
						<path fill="#97BC3D" d="M195.305,111.498c5.503-13.245-9.506-37.418-26.312-25.784c-6.266-8.361-11.797-13.853-19.376-13.853
							c-10.845,0-20.143,12.035-24.087,29.164c-2.652-0.629-5.99,3.667-5.99,10.307c0,0.014,0.003,0.026,0.003,0.039
							c-5.443-0.465-9.963,4.344-9.963,10.32c0,9.931,11.318,14.141,16.643,6.208c2.918,2.568,6.812,4.151,11.107,4.151
							c7.78,0,14.279-5.163,15.941-12.069c2.351,7.029,8.651,12.069,16.078,12.069c3.967,0,8.458-1.575,11.916-5.158
							C189.342,139.659,200.507,127.053,195.305,111.498z"/>
					</g>
				</g>
			</g>
		</g>
		<rect x="71.975" y="186.564" fill="#A6A8AB" width="23.489" height="3.679"/>
		<rect x="70.135" y="190.243" fill="#A6A8AB" width="27.168" height="3.679"/>
		<rect x="68.013" y="193.64" fill="#A6A8AB" width="31.413" height="3.679"/>
	</g>
</g>
</svg>
