<?xml version="1.0" encoding="utf-8"?>
<!-- Generator: Adobe Illustrator 16.0.0, SVG Export Plug-In . SVG Version: 6.00 Build 0)  -->
<!DOCTYPE svg PUBLIC "-//W3C//DTD SVG 1.1//EN" "http://www.w3.org/Graphics/SVG/1.1/DTD/svg11.dtd">
<svg version="1.1" id="Capa_1" xmlns="http://www.w3.org/2000/svg" xmlns:xlink="http://www.w3.org/1999/xlink" x="0px" y="0px"
	 width="223.2px" height="251px" viewBox="0 0 223.2 251" enable-background="new 0 0 223.2 251" xml:space="preserve">
<g>
	<path opacity="0.25" fill="#017A94" d="M110.586,46.184c43.913,0,79.512,35.599,79.512,79.513
		c0,43.913-35.599,79.513-79.512,79.513c-43.914,0-79.513-35.6-79.513-79.513C31.074,81.783,66.672,46.184,110.586,46.184z"/>
	<rect x="66.414" y="89.789" fill="#F1F1F2" width="89.054" height="49.616"/>
	<g>
		<g>
			<rect x="68.595" y="165.582" fill="#A87C4F" width="35.599" height="24.918"/>
			<line fill="none" stroke="#8A5D3B" stroke-width="4" stroke-miterlimit="10" x1="71.391" y1="190.436" x2="85.65" y2="165.848"/>
			
				<line fill="none" stroke="#8A5D3B" stroke-width="4" stroke-miterlimit="10" x1="68.708" y1="185.344" x2="80.145" y2="165.848"/>
			<line fill="none" stroke="#8A5D3B" stroke-width="4" stroke-miterlimit="10" x1="68.85" y1="177.051" x2="75.626" y2="165.702"/>
			<line fill="none" stroke="#8A5D3B" stroke-width="4" stroke-miterlimit="10" x1="77.321" y1="190.436" x2="91.58" y2="165.848"/>
			<line fill="none" stroke="#8A5D3B" stroke-width="4" stroke-miterlimit="10" x1="82.967" y1="190.29" x2="97.226" y2="165.702"/>
			
				<line fill="none" stroke="#8A5D3B" stroke-width="4" stroke-miterlimit="10" x1="88.615" y1="190.145" x2="102.874" y2="165.557"/>
			<line fill="none" stroke="#8A5D3B" stroke-width="4" stroke-miterlimit="10" x1="93.415" y1="190.873" x2="103.58" y2="172.25"/>
			<line fill="none" stroke="#8A5D3B" stroke-width="4" stroke-miterlimit="10" x1="98.78" y1="190.581" x2="103.72" y2="179.669"/>
		</g>
		<rect x="73.436" y="70.024" fill="#6F6F6F" width="24.011" height="16.015"/>
		<line fill="none" stroke="#F1F1F2" stroke-width="3" stroke-miterlimit="10" x1="69.058" y1="89.159" x2="91.33" y2="89.445"/>
		<g>
			
				<rect x="121.038" y="93.243" opacity="0.19" fill="#017A94" stroke="#3B2314" stroke-width="5" stroke-miterlimit="10" width="25.39" height="21.104"/>
			
				<line opacity="0.75" fill="#8DBEAE" stroke="#F1F1F2" stroke-width="2" stroke-linecap="round" stroke-linejoin="round" stroke-miterlimit="10" x1="125.575" y1="106.003" x2="137.129" y2="98.017"/>
			
				<line opacity="0.75" fill="#8DBEAE" stroke="#F1F1F2" stroke-width="2" stroke-linecap="round" stroke-linejoin="round" stroke-miterlimit="10" x1="125.575" y1="109.847" x2="141.691" y2="98.905"/>
		</g>
		<g>
			<rect x="62.541" y="64.674" fill="#A6A8AB" width="10.799" height="123.965"/>
			<rect x="146.82" y="64.674" fill="#A6A8AB" width="11.828" height="123.965"/>
			<rect x="21.703" y="188.941" fill="#D0D2D3" width="177.3" height="11.249"/>
			<rect x="58.507" y="137.245" fill="#D0D2D3" width="104.218" height="6.374"/>
			<rect x="58.507" y="86.044" fill="#D0D2D3" width="104.218" height="6.375"/>
			<rect x="109.45" y="64.525" fill="#A6A8AB" width="11.314" height="123.964"/>
			<g>
				<polygon fill="#FFCB69" stroke="#C3996B" stroke-width="0.25" stroke-miterlimit="10" points="188.966,188.898 188.966,160.755 
					194.245,153.648 199.47,160.755 199.47,188.898 				"/>
				<polygon fill="#FFCB69" stroke="#C3996B" stroke-width="0.25" stroke-miterlimit="10" points="23.46,188.898 23.46,159.08 
					28.67,151.551 33.829,159.08 33.829,188.898 				"/>
				<polygon fill="#FFCB69" stroke="#C3996B" stroke-width="0.25" stroke-miterlimit="10" points="34.186,188.898 34.186,160.251 
					38.857,153.018 43.482,160.251 43.482,188.898 				"/>
				<polygon fill="#FFCB69" stroke="#C3996B" stroke-width="0.25" stroke-miterlimit="10" points="43.839,188.898 43.839,159.08 
					48.51,151.551 53.135,159.08 53.135,188.898 				"/>
				<polygon fill="#FFCB69" stroke="#C3996B" stroke-width="0.25" stroke-miterlimit="10" points="53.492,188.898 53.492,160.755 
					58.703,153.648 63.861,160.755 63.861,188.898 				"/>
				<polygon fill="#FFCB69" stroke="#C3996B" stroke-width="0.25" stroke-miterlimit="10" points="158.544,188.898 158.544,159.08 
					163.822,151.551 169.046,159.08 169.046,188.898 				"/>
				<polygon fill="#FFCB69" stroke="#C3996B" stroke-width="0.25" stroke-miterlimit="10" points="169.409,188.898 169.409,160.252 
					174.141,153.018 178.826,160.252 178.826,188.898 				"/>
				<polygon fill="#FFCB69" stroke="#C3996B" stroke-width="0.25" stroke-miterlimit="10" points="179.188,188.898 179.188,159.08 
					183.919,151.551 188.604,159.08 188.604,188.898 				"/>
				<polygon fill="#FFCB69" stroke="#C3996B" stroke-width="0.25" stroke-miterlimit="10" points="95.456,188.898 95.456,160.755 
					100.734,153.648 105.958,160.755 105.958,188.898 				"/>
				<polygon fill="#FFCB69" stroke="#C3996B" stroke-width="0.25" stroke-miterlimit="10" points="65.033,188.898 65.033,159.08 
					70.311,151.551 75.536,159.08 75.536,188.898 				"/>
				<polygon fill="#FFCB69" stroke="#C3996B" stroke-width="0.25" stroke-miterlimit="10" points="75.898,188.898 75.898,160.252 
					80.63,153.018 85.315,160.252 85.315,188.898 				"/>
				<polygon fill="#FFCB69" stroke="#C3996B" stroke-width="0.25" stroke-miterlimit="10" points="85.677,188.898 85.677,159.08 
					90.409,151.551 95.093,159.08 95.093,188.898 				"/>
				<polygon fill="#FFCB69" stroke="#C3996B" stroke-width="0.25" stroke-miterlimit="10" points="137.111,188.898 137.111,160.755 
					142.388,153.648 147.613,160.755 147.613,188.898 				"/>
				<polygon fill="#FFCB69" stroke="#C3996B" stroke-width="0.25" stroke-miterlimit="10" points="106.689,188.898 106.689,159.08 
					111.966,151.551 117.191,159.08 117.191,188.898 				"/>
				<polygon fill="#FFCB69" stroke="#C3996B" stroke-width="0.25" stroke-miterlimit="10" points="117.554,188.898 117.554,160.252 
					122.285,153.018 126.971,160.252 126.971,188.898 				"/>
				<polygon fill="#FFCB69" stroke="#C3996B" stroke-width="0.25" stroke-miterlimit="10" points="127.333,188.898 127.333,159.08 
					132.064,151.551 136.75,159.08 136.75,188.898 				"/>
				<polygon fill="#FFCB69" stroke="#C3996B" stroke-width="0.25" stroke-miterlimit="10" points="148.519,188.898 148.519,160.755 
					153.798,153.648 159.023,160.755 159.023,188.898 				"/>
			</g>
		</g>
		<g>
			
				<rect x="74.153" y="93.346" opacity="0.19" fill="#017A94" stroke="#3B2314" stroke-width="5" stroke-miterlimit="10" width="34.562" height="32.238"/>
			
				<line opacity="0.45" fill="#8DBEAE" stroke="#F1F1F2" stroke-width="2" stroke-linecap="round" stroke-linejoin="round" stroke-miterlimit="10" x1="76.654" y1="115.164" x2="92.75" y2="98.446"/>
			
				<line opacity="0.45" fill="#8DBEAE" stroke="#F1F1F2" stroke-width="2" stroke-linecap="round" stroke-linejoin="round" stroke-miterlimit="10" x1="81.478" y1="115.491" x2="99.404" y2="95.67"/>
		</g>
		<rect x="73.436" y="126.319" fill="#A6A8AB" stroke="#929497" stroke-miterlimit="10" width="35.885" height="10.927"/>
		<rect x="120.507" y="115.188" fill="#A6A8AB" stroke="#929497" stroke-miterlimit="10" width="26.557" height="21.74"/>
		<polygon fill="#FFFFFF" points="75.955,100.285 77.545,97.74 107.759,116.187 106.169,118.414 		"/>
		<polygon fill="#FFFFFF" points="76.155,119.074 74.944,116.329 107.186,101.711 108.134,104.278 		"/>
		<polygon fill="#FFFFFF" points="144.436,110.488 143.542,112.238 122.781,101.912 123.693,100.37 		"/>
		<polygon fill="#FFFFFF" points="143.24,98.238 144.187,99.961 123.973,111.326 123.21,109.705 		"/>
		<rect x="76.273" y="74.205" fill="#6F6F6F" stroke="#929497" stroke-miterlimit="10" width="15.266" height="8.587"/>
	</g>
</g>
</svg>
