<?xml version="1.0" encoding="utf-8"?>
<!-- Generator: Adobe Illustrator 16.0.0, SVG Export Plug-In . SVG Version: 6.00 Build 0)  -->
<!DOCTYPE svg PUBLIC "-//W3C//DTD SVG 1.1//EN" "http://www.w3.org/Graphics/SVG/1.1/DTD/svg11.dtd">
<svg version="1.1" id="Capa_1" xmlns="http://www.w3.org/2000/svg" xmlns:xlink="http://www.w3.org/1999/xlink" x="0px" y="0px"
	 width="223.2px" height="251px" viewBox="0 0 223.2 251" enable-background="new 0 0 223.2 251" xml:space="preserve">
<g>
	<path opacity="0.25" fill="#017A94" enable-background="new    " d="M111.258,58.024c37.266,0,67.477,30.209,67.477,67.477
		c0,37.267-30.209,67.476-67.477,67.476c-37.266,0-67.475-30.209-67.475-67.477C43.783,88.233,73.993,58.024,111.258,58.024z"/>
	
		<line fill="none" stroke="#6F6F6F" stroke-width="4" stroke-linecap="round" stroke-linejoin="round" stroke-miterlimit="10" x1="118.147" y1="74.724" x2="118.254" y2="69.499"/>
	
		<line fill="none" stroke="#6F6F6F" stroke-width="4" stroke-linecap="round" stroke-linejoin="round" stroke-miterlimit="10" x1="116.635" y1="76.083" x2="116.745" y2="70.857"/>
	
		<line fill="none" stroke="#6F6F6F" stroke-width="4" stroke-linecap="round" stroke-linejoin="round" stroke-miterlimit="10" x1="114.909" y1="73.992" x2="115.017" y2="68.769"/>
	<g>
		<g>
			<rect x="75.624" y="159.348" fill="#A87C4F" width="38.496" height="21.146"/>
			
				<line fill="none" stroke="#8A5D3B" stroke-width="4" stroke-miterlimit="10" x1="78.648" y1="180.439" x2="94.066" y2="159.573"/>
			
				<line fill="none" stroke="#8A5D3B" stroke-width="4" stroke-miterlimit="10" x1="75.747" y1="176.118" x2="88.114" y2="159.573"/>
			<line fill="none" stroke="#8A5D3B" stroke-width="4" stroke-miterlimit="10" x1="75.899" y1="169.08" x2="83.228" y2="159.449"/>
			
				<line fill="none" stroke="#8A5D3B" stroke-width="4" stroke-miterlimit="10" x1="85.061" y1="180.439" x2="100.479" y2="159.573"/>
			
				<line fill="none" stroke="#8A5D3B" stroke-width="4" stroke-miterlimit="10" x1="91.166" y1="180.316" x2="106.584" y2="159.449"/>
			
				<line fill="none" stroke="#8A5D3B" stroke-width="4" stroke-miterlimit="10" x1="97.273" y1="180.191" x2="112.692" y2="159.325"/>
			
				<line fill="none" stroke="#8A5D3B" stroke-width="4" stroke-miterlimit="10" x1="102.464" y1="180.811" x2="113.458" y2="165.006"/>
			
				<line fill="none" stroke="#8A5D3B" stroke-width="4" stroke-miterlimit="10" x1="108.265" y1="180.562" x2="113.608" y2="171.303"/>
		</g>
		
			<line fill="none" stroke="#8A5D3B" stroke-width="10" stroke-miterlimit="10" x1="75.624" y1="159.832" x2="111.247" y2="144.73"/>
		
			<line fill="none" stroke="#8A5D3B" stroke-width="10" stroke-miterlimit="10" x1="75.624" y1="144.867" x2="110.442" y2="160.393"/>
		<g>
			<rect x="119.928" y="120.81" fill="#A87C4F" width="22.945" height="15.861"/>
			
				<line fill="none" stroke="#8A5D3B" stroke-width="4" stroke-miterlimit="10" x1="122.84" y1="136.63" x2="137.678" y2="120.979"/>
			
				<line fill="none" stroke="#8A5D3B" stroke-width="4" stroke-miterlimit="10" x1="120.047" y1="133.389" x2="131.948" y2="120.979"/>
			
				<line fill="none" stroke="#8A5D3B" stroke-width="4" stroke-miterlimit="10" x1="120.196" y1="128.109" x2="127.249" y2="120.887"/>
			
				<line fill="none" stroke="#8A5D3B" stroke-width="4" stroke-miterlimit="10" x1="129.01" y1="136.63" x2="143.848" y2="120.979"/>
			
				<line fill="none" stroke="#8A5D3B" stroke-width="4" stroke-miterlimit="10" x1="134.887" y1="136.537" x2="143.137" y2="127.568"/>
		</g>
		<rect x="75.953" y="87.613" fill="#6F6F6F" width="19.027" height="13.051"/>
		<line fill="none" stroke="#F1F1F2" stroke-width="3" stroke-miterlimit="10" x1="76.271" y1="97.762" x2="94.664" y2="98.488"/>
		<line fill="none" stroke="#F1F1F2" stroke-width="3" stroke-miterlimit="10" x1="76.017" y1="94.494" x2="94.917" y2="94.736"/>
		<line fill="none" stroke="#F1F1F2" stroke-width="3" stroke-miterlimit="10" x1="75.763" y1="90.866" x2="95.171" y2="91.107"/>
		<g>
			<rect x="110.295" y="74.128" fill="#A6A8AB" width="9.602" height="105.2"/>
			<polygon fill="#FFCB69" stroke="#A87C4F" stroke-width="0.25" stroke-miterlimit="10" points="177.772,179.078 177.772,155.195 
				182.252,149.164 186.688,155.195 186.688,179.078 			"/>
			<g>
				<rect x="79.761" y="97.667" fill="#6F6F6F" width="20.959" height="37.378"/>
				
					<line fill="none" stroke="#F1F1F2" stroke-width="3" stroke-miterlimit="10" x1="79.552" y1="104.663" x2="100.93" y2="104.131"/>
				
					<line fill="none" stroke="#F1F1F2" stroke-width="3" stroke-miterlimit="10" x1="79.552" y1="108.395" x2="100.93" y2="109.194"/>
				
					<line fill="none" stroke="#F1F1F2" stroke-width="3" stroke-miterlimit="10" x1="79.552" y1="116.523" x2="100.93" y2="117.324"/>
				
					<line fill="none" stroke="#F1F1F2" stroke-width="3" stroke-miterlimit="10" x1="80.111" y1="131.85" x2="100.371" y2="132.648"/>
				
					<line fill="none" stroke="#F1F1F2" stroke-width="3" stroke-miterlimit="10" x1="79.832" y1="128.25" x2="100.65" y2="128.518"/>
				
					<line fill="none" stroke="#F1F1F2" stroke-width="3" stroke-miterlimit="10" x1="79.552" y1="119.722" x2="100.93" y2="120.521"/>
				
					<line fill="none" stroke="#F1F1F2" stroke-width="3" stroke-miterlimit="10" x1="79.552" y1="112.792" x2="100.93" y2="113.059"/>
				
					<line fill="none" stroke="#F1F1F2" stroke-width="3" stroke-miterlimit="10" x1="79.552" y1="100.666" x2="100.93" y2="100.932"/>
				
					<line fill="none" stroke="#F1F1F2" stroke-width="3" stroke-miterlimit="10" x1="79.552" y1="124.253" x2="100.93" y2="124.52"/>
			</g>
			
				<line fill="none" stroke="#6F6F6F" stroke-width="4" stroke-linecap="round" stroke-linejoin="round" stroke-miterlimit="10" x1="147.178" y1="74.849" x2="147.286" y2="69.625"/>
			
				<line fill="none" stroke="#6F6F6F" stroke-width="4" stroke-linecap="round" stroke-linejoin="round" stroke-miterlimit="10" x1="145.667" y1="76.207" x2="145.774" y2="70.984"/>
			
				<line fill="none" stroke="#6F6F6F" stroke-width="4" stroke-linecap="round" stroke-linejoin="round" stroke-miterlimit="10" x1="143.94" y1="74.118" x2="144.049" y2="68.894"/>
			
				<line fill="none" stroke="#6F6F6F" stroke-width="4" stroke-linecap="round" stroke-linejoin="round" stroke-miterlimit="10" x1="74.4" y1="70.365" x2="74.293" y2="75.589"/>
			
				<line fill="none" stroke="#6F6F6F" stroke-width="4" stroke-linecap="round" stroke-linejoin="round" stroke-miterlimit="10" x1="75.911" y1="69.007" x2="75.804" y2="74.23"/>
			
				<line fill="none" stroke="#6F6F6F" stroke-width="4" stroke-linecap="round" stroke-linejoin="round" stroke-miterlimit="10" x1="77.638" y1="71.096" x2="77.53" y2="76.32"/>
			<rect x="70.486" y="74.128" fill="#A6A8AB" width="9.164" height="105.2"/>
			<rect x="142.006" y="74.128" fill="#A6A8AB" width="10.037" height="105.2"/>
			<rect x="36.371" y="179.171" fill="#D0D2D3" width="150.458" height="9.548"/>
			<rect x="67.063" y="135.302" fill="#D0D2D3" width="88.441" height="5.408"/>
			<rect x="67.063" y="91.851" fill="#D0D2D3" width="88.441" height="5.41"/>
			<polygon fill="#FFCB69" stroke="#A87C4F" stroke-width="0.25" stroke-miterlimit="10" points="36.512,179.114 36.512,153.812 
				40.934,147.42 45.311,153.812 45.311,179.114 			"/>
			<polygon fill="#FFCB69" stroke="#A87C4F" stroke-width="0.25" stroke-miterlimit="10" points="45.614,179.114 45.614,154.807 
				49.578,148.666 53.502,154.807 53.502,179.114 			"/>
			<polygon fill="#FFCB69" stroke="#A87C4F" stroke-width="0.25" stroke-miterlimit="10" points="53.806,179.114 53.806,153.812 
				57.77,147.42 61.694,153.812 61.694,179.114 			"/>
			<polygon fill="#FFCB69" stroke="#A87C4F" stroke-width="0.25" stroke-miterlimit="10" points="61.998,179.114 61.998,155.23 
				66.419,149.202 70.797,155.23 70.797,179.114 			"/>
			<polygon fill="#FFCB69" stroke="#A87C4F" stroke-width="0.25" stroke-miterlimit="10" points="151.956,179.078 151.956,153.773 
				156.436,147.385 160.87,153.773 160.87,179.078 			"/>
			<polygon fill="#FFCB69" stroke="#A87C4F" stroke-width="0.25" stroke-miterlimit="10" points="161.176,179.078 161.176,154.768 
				165.192,148.629 169.167,154.768 169.167,179.078 			"/>
			<polygon fill="#FFCB69" stroke="#A87C4F" stroke-width="0.25" stroke-miterlimit="10" points="169.475,179.078 169.475,153.773 
				173.491,147.385 177.465,153.773 177.465,179.078 			"/>
		</g>
	</g>
</g>
</svg>
