<?xml version="1.0" standalone="no"?>
<!DOCTYPE svg PUBLIC "-//W3C//DTD SVG 1.1//EN" "http://www.w3.org/Graphics/SVG/1.1/DTD/svg11.dtd" >
<svg xmlns="http://www.w3.org/2000/svg">
<metadata>Generated by IcoMoon</metadata>
<defs>
<font id="icomoon" horiz-adv-x="1024">
<font-face units-per-em="1024" ascent="960" descent="-64" />
<missing-glyph horiz-adv-x="1024" />
<glyph unicode="&#x20;" horiz-adv-x="512" d="" />
<glyph unicode="&#xe600;" glyph-name="office" d="M0-64h512v1024h-512v-1024zM320 832h128v-128h-128v128zM320 576h128v-128h-128v128zM320 320h128v-128h-128v128zM64 832h128v-128h-128v128zM64 576h128v-128h-128v128zM64 320h128v-128h-128v128zM576 640h448v-64h-448zM576-64h128v256h192v-256h128v576h-448z" />
<glyph unicode="&#xe601;" glyph-name="mobile" d="M736 960h-448c-52.8 0-96-43.2-96-96v-832c0-52.8 43.2-96 96-96h448c52.8 0 96 43.2 96 96v832c0 52.8-43.2 96-96 96zM384 912h256v-32h-256v32zM512 0c-35.346 0-64 28.654-64 64s28.654 64 64 64 64-28.654 64-64-28.654-64-64-64zM768 192h-512v640h512v-640z" />
<glyph unicode="&#xe602;" glyph-name="radio-checked" d="M512 960c-282.77 0-512-229.23-512-512s229.23-512 512-512 512 229.23 512 512-229.23 512-512 512zM512 64c-212.078 0-384 171.922-384 384s171.922 384 384 384c212.078 0 384-171.922 384-384s-171.922-384-384-384zM320 448c0 106.039 85.961 192 192 192s192-85.961 192-192c0-106.039-85.961-192-192-192s-192 85.961-192 192z" />
<glyph unicode="&#xe603;" glyph-name="safari" d="M512 896c-24.064 0-47.708-1.792-70.824-5.212-0.3 0.782-0.624 1.548-0.982 2.296 12.826 10.002 19.55 23.83 16.634 37.552-3.734 17.564-22.394 29.364-46.434 29.364-5.18 0-10.458-0.562-15.68-1.672-30.168-6.414-50.146-28.622-45.482-50.562 2.834-13.338 14.292-23.338 30.164-27.384-0.032-0.972-0.016-1.95 0.042-2.934-200.622-57.53-347.438-242.338-347.438-461.448 0-265.098 214.904-480 480-480 265.098 0 480 214.902 480 480 0 265.096-214.902 480-480 480zM364.882 911.092c-2.706 12.726 12.48 27.19 33.158 31.584 4.132 0.878 8.29 1.324 12.354 1.324 16.036 0 28.694-6.864 30.784-16.69 1.596-7.51-3.070-15.61-11.386-21.904-7.034 4.966-16.016 7.126-25.1 5.196-9.044-1.922-16.348-7.508-20.758-14.856-10.184 2.45-17.508 8.084-19.052 15.346zM769.386 158.614c-43.968-43.968-97.21-75.278-155.31-92.154l-42.396 68.768-10.746-79.958c-16.090-2.152-32.426-3.27-48.934-3.27-97.228 0-188.636 37.864-257.386 106.614-43.968 43.966-75.278 97.21-92.154 155.308l68.768 42.398-79.96 10.746c-2.15 16.090-3.268 32.426-3.268 48.934 0 97.228 37.862 188.636 106.614 257.386 43.968 43.968 97.212 75.278 155.31 92.156l42.396-68.77 10.748 79.96c16.088 2.15 32.424 3.268 48.932 3.268 97.228 0 188.636-37.862 257.386-106.614 43.968-43.968 75.278-97.212 92.154-155.31l-68.77-42.398 79.96-10.746c2.152-16.088 3.27-32.424 3.27-48.932 0-97.228-37.864-188.636-106.614-257.386zM760.902 664.902l-196.978-149.704c-14.644 7.658-30.876 12.062-47.416 12.726l-51.080 107.18-3.068-118.664c-13.284-6.536-25.104-15.664-34.876-26.95l-63.088 22.364 46.092-48.538c-6.334-13.518-9.866-28.030-10.434-42.824l-107.158-51.066 118.738-3.068c0.38-0.768 0.774-1.526 1.17-2.282l-149.704-196.98 196.978 149.704c14.644-7.656 30.874-12.060 47.416-12.724l51.080-107.182 3.066 118.664c13.286 6.538 25.106 15.664 34.878 26.952l63.090-22.368-46.094 48.54c6.336 13.52 9.868 28.030 10.436 42.824l107.156 51.066-118.736 3.070c-0.378 0.766-0.774 1.524-1.17 2.28l149.702 196.98zM512.102 515.466v0zM492.042 509.902c6.726 1.43 13.444 2.118 20.056 2.118 4.144 0 8.25-0.27 12.294-0.796l0.092-0.032-0.010 0.022c8.732-1.144 17.176-3.5 25.132-6.896l-71.546-54.376-54.38-71.552c-2.376 5.594-4.27 11.484-5.58 17.652-11.026 51.86 22.080 102.836 73.942 113.86zM562.12 334.116v0 0c-9.056-5.544-19.182-9.684-30.16-12.018-6.726-1.43-13.444-2.118-20.054-2.118-4.15 0-8.258 0.272-12.308 0.798l-0.068 0.010c-8.734 1.142-17.174 3.5-25.132 6.894l71.544 54.376 54.38 71.554c2.376-5.594 4.27-11.486 5.58-17.654 8.69-40.882-10.056-81.2-43.782-101.842z" />
</font></defs></svg>